[Intro]
 (Acoustic guitar)
e|------------------------|------------------------|
B|------------------------|------------------------|
G|-------0----------------|-------0----------------|
D|----4-----4-----4-----4-|----4-----4-----4-----4-|
A|-2-----------2-----5----|-0-----------0-----5----|
E|------------------------|------------------------|
                                                            x6
e|------------------------|------------------------|
B|------------------------|------------------------|
G|-------0----------------|-------2----------------|
D|----4-----4-----4-----4-|----2-----2-----2-----2-|
A|-2-----------2-----5----|-4-----------4-----0----|
E|------------------------|------------------------|

e|------------------------|---------------------------|
B|------------------------|-------------------0----3--|
G|------------------------|-------1--------1----------|
D|-------0-----------2----|----2--------2-------------|
A|----3-----------2-----2-|-2--------2----------------|
E|-1--------1--4----------|---------------------------|

 (Lead guitar)
e|-------|-------|--------|--------------------------------|
B|-------|-------|--------|---------------------7----------|
G|-------|-------|--------|------------------7-(7)---------|
D|-------|-------|--------|-------------/9-----------9-----|
A|-------|-------|--------|--------------------------------|
E|-------|-------|--------|--------------------------------|

e|--------------------------|-----------------------|
B|-----7--8/10--------8--10-|-12---10---8---10------|
G|--------------------------|-----------------------|
D|--------------------------|-----------------------|
A|--------------------------|-----------------------|
E|--------------------------|-----------------------|

e|------------------------------|---------------------|
B|-(10)---12p10p8\7h8p7-------7-|-7h8--7-----7--------|
G|-------------------------9----|---------9-----9---7-|
D|------------------------------|---------------------|
A|------------------------------|---------------------|
E|------------------------------|---------------------|

e|----------------------------|-----------------|-----|
B|----------------------------|---------------8-|-7---|
G|----------------------7\6---|----------7p6----|-----|
D|-7---9----------(9)\--------|-----------------|-----|
A|----------------------------|-----------------|-----|
E|----------------------------|-----------------|-----|

e|---------------------|
B|-8/10~~~~~~~~~~~~~~~~|
G|---------------------|
D|---------------------|                   
A|---------------------|                     
E|---------------------|                     

e|---14-19p14-----15p14-------------------------------------|
B|-15--------15--------15---17-15-14------------------------|
G|-------------16--------14---------16-14b-----(14)--~~~~~~~|
D|----------------------------------------------------------|
A|----------------------------------------------------------|
E|----------------------------------------------------------|

e|---------------------------------------------------------|
B|---------------------------------14-15-14h15p14----14-15-|
G|-14h16---------------------14-16----------------16-------|
D|--------14----------14h16--------------------------------|
A|---------------------------------------------------------|
E|---------------------------------------------------------|

                                         
e|----19--17--15----------15--17-|-14----------------------|
B|-14----------------------------|----15-------------------|
G|-------------------------------|-------16~~~~~~~~~~~~~~~~|
D|-------------------------------|-------------------------|
A|-------------------------------|-------------------------|
E|-------------------------------|-------------------------|

e|-14--15--14--------------14--15--14------17----15--14-----|
B|---------------15--------------------15-------------------|
G|------------------14--------------------------------------|
D|----------------------------------------------------------|
A|----------------------------------------------------------|
E|----------------------------------------------------------|

e|------------------------|---------12-13-15-12h13h15---17--|
B|------------------------|-12-13-15------------------15----|
G|------------------12-14-|---------------------------------|
D|----------12-14-15------|---------------------------------|
A|-12-14-15---------------|---------------------------------|
E|------------------------|---------------------------------|

[Instrumental] 
e|----------0----------|------------0----------|
B|-0h1---------------1-|-(1)---1-------------0-|
G|-2---2---------0h2---|--0--------------0h2---|
D|-2-----2-----2-------|--2------2-----2-------|
A|-0-------------------|--3--------------------|
E|---------------------|-----------------------|

e|------------3-----3--3-|---------------------|
B|-(0)---3---------------|---------0--(1)/3----|
G|--0---------------2--0-|-0-------0--(2)/4----|
D|---------0-----0-------|-----2---------------|
A|-----------------------|-------2-------------|
E|--3--------------------|-0-------------------|
                                                                       x 2     
e|----------0-----------|------------0----------|
B|-0h1----------------1-|-(1)---1-------------0-|
G|-2---2----------0h2---|--0--------------0h2---|
D|-2-----2-----2--------|--2------2-----2-------|
A|-0--------------------|--3--------------------|
E|----------------------|-----------------------|

e|-------------3-------------|-0------------------------|
B|-(0)---3-------------------|-0----------0---(1)/3-----|
G|--0----------------0h2p0-0-|-0----------0---(2)/4-----|
D|----------0-----0----------|-2----2-------------------|
A|---------------------------|---------2----------------|
E|--3------------------------|----0---------------------|

[Verse]
e|----------0----------|------------0----------|
B|-0h1---------------1-|-(1)---1-------------0-|
G|-2---2---------0h2---|--0--------------0h2---|
D|-2-----2-----2-------|--2------2-----2-------|
A|-0-------------------|--3--------------------|
E|---------------------|-----------------------|

e|------------3-----3--3-|---------------------|
B|-(0)---3---------------|---------0--(1)/3----|
G|--0---------------2--0-|-0-------0--(2)/4----|
D|---------0-----0-------|-----2---------------|
A|-----------------------|-------2-------------|
E|--3--------------------|-0-------------------|
                                                                                     
e|----------0-----------|------------0----------|
B|-0h1----------------1-|-(1)---1-------------0-|
G|-2---2----------0h2---|--0--------------0h2---|
D|-2-----2-----2--------|--2------2-----2-------|
A|-0--------------------|--3--------------------|
E|----------------------|-----------------------|

e|-------------3-------------|-0------------------------|
B|-(0)---3-------------------|-0----------0---(1)/3-----|
G|--0----------------0h2p0-0-|-0----------0---(2)/4-----|
D|----------0-----0----------|-2----2-------------------|
A|---------------------------|---------2----------------|
E|--3------------------------|----0---------------------|

e|----------0----------|------------0----------|
B|-0h1---------------1-|-(1)---1-------------0-|
G|-2---2---------0h2---|--0--------------0h2---|
D|-2-----2-----2-------|--2------2-----2-------|
A|-0-------------------|--3--------------------|
E|---------------------|-----------------------|

e|------------3-----3--3-|---------------------|
B|-(0)---3---------------|---------0--(1)/3----|
G|--0---------------2--0-|-0-------0--(2)/4----|
D|---------0-----0-------|-----2---------------|
A|-----------------------|-------2-------------|
E|--3--------------------|-0-------------------|
                                                                                        
e|----------0-----------|------------0----------|
B|-0h1----------------1-|-(1)---1-------------0-|
G|-2---2----------0h2---|--0--------------0h2---|
D|-2-----2-----2--------|--2------2-----2-------|
A|-0--------------------|--3--------------------|
E|----------------------|-----------------------|

e|-------------3-------------|
B|-(0)---3-------------------|
G|--0----------------0h2p0-0-|
D|----------0-----0----------|
A|---------------------------|
E|--3------------------------|

P.M.--------------------|      
e|------------------------|
B|-5--5--5--5--5--5--5--5-|
G|-5--5--5--5--5--5--5--5-|
D|-2--2--2--2--2--2--2--2-|
A|------------------------|
E|-0--0--0--0--0--0--0--0-|
   w/distortion          

[Chorus]
P.M.--------------------|               
e|--------------------------|
B|-0-------2--2-------------|
G|-2-------2--2-------------|
D|-2-------2--2-------------|
A|-0-------0--0-----------5-|
E|---------------0--0--3----|

               P.M.-------|
e|--------------------------|
B|-5-------5--5-------------|
G|-5-------5--5-------------|
D|-5-------5--5-------------|
A|-3-------3--3-----------5-|
E|---------------0--0--3----|
                                 P.M.--------|
e|---------------------------------------------|
B|-2-------2--2-----7---9-----9--9-------------|
G|-2-------2--2-----7---9-----9--9-------------|
D|-2-------2--2-----7---9-----9--9--------5--5-|
A|-0-------0--0-----5---7-----7--7--------3--2-|
E|----------------------------------0--0-------|

               P.M.------|                P.M.-------|
e|--------------------------|--------------------------|
B|-0-------2--2-------------|-5-------5--5-------------|
G|-2-------2--2-------------|-5-------5--5-------------|
D|-2-------2--2-------------|-5-------5--5-------------|
A|-0-------0--0-----------5-|-3-------3--3-----------5-|
E|---------------0--0--3----|---------------0--0--3----|

               P.M.--|
e|---------------------|------------|
B|-2-------2--2--------|------------|
G|-2-------2--2--------|------------|
D|-2-------2--2--------|-2----------|
A|-0-------0--0--5--5--|-2----------|
E|---------------3--2--|-0----------|

P.M.--------------------|               P.M.-------|
e|------------------------|--------------------------|
B|-5--5--5--5--5--5--5--5-|-0-------2--2-------------|
G|-5--5--5--5--5--5--5--5-|-2-------2--2-------------|
D|-2--2--2--2--2--2--2--2-|-2-------2--2-------------|
A|------------------------|-0-------0--0-----------5-|
E|-0--0--0--0--0--0--0--0-|---------------0--0--3----|

               P.M.-------|
e|--------------------------|
B|-5-------5--5-------------|
G|-5-------5--5-------------|
D|-5-------5--5-------------|
A|-3-------3--3-----------5-|
E|---------------0--0--3----|
                                 P.M.--------|
e|---------------------------------------------|
B|-2-------2--2-----7---9-----9--9-------------|
G|-2-------2--2-----7---9-----9--9-------------|
D|-2-------2--2-----7---9-----9--9--------5--5-|
A|-0-------0--0-----5---7-----7--7--------3--2-|
E|----------------------------------0--0-------|

               P.M.------|                P.M.-------|
e|--------------------------|--------------------------|
B|-0-------2--2-------------|-5-------5--5-------------|
G|-2-------2--2-------------|-5-------5--5-------------|
D|-2-------2--2-------------|-5-------5--5-------------|
A|-0-------0--0-----------5-|-3-------3--3-----------5-|
E|---------------0--0--3----|---------------0--0--3----|

               P.M.--|
e|---------------------|------------|
B|-2-------2--2--------|------------|
G|-2-------2--2--------|------------|
D|-2-------2--2--------|-2----------|
A|-0-------0--0--5--5--|-2----------|
E|---------------3--2--|-0----------|

[Instrumental]
(Lead Guitar)
e|---------------------|--------------------------|
B|-10~~~~~~~~~~~10--12-|-13------13/15--13--12----|
G|--9~~~~~~~~~~~-9--11-|-12------12/14--12--11----|
D|---------------------|--------------------------|
A|---------------------|--------------------------|
E|---------------------|--------------------------|

e|--------------------------|--------------------------|
B|--------------------------|--------------------------|
G|-12~~~~~~~~~~~~~~-12/14---|-9~~~~~~~~~~~9/11---11/12-|
D|-12~~~~~~~~~~~~~~-12/14---|-9~~~~~~~~~~~9/11---11/12-|
A|--------------------------|--------------------------|
E|--------------------------|--------------------------|
                                            
e|-----------------------------|----------------------------|
B|--------------------------12-|-13~~~~~~15b---------13-----|
G|-12/14~~~~~~~~~~~~~~~~14--11-|-12~~~~~~14b---------12-----|
D|-12/14~~~~~~~~~~~~~~~~14-----|----------------------------|
A|-----------------------------|----------------------------|
E|-----------------------------|----------------------------|

e|-------------------------------|--------------------------|
B|-15b-----15b-----15b-----15b---|(15)~~~~~~~~~~~~~~~~~~~~~~|
G|-14b-----14b-----14b-----14b---|(14)~~~~~~~~~~~~~~~~~~~~~~|
D|-------------------------------|--------------------------|
A|-------------------------------|--------------------------|
E|-------------------------------|--------------------------|

 (Acoustic guitar)
e|----------0----------|------------0----------|
B|-0h1---------------1-|-(1)---1-------------0-|
G|-2---2---------0h2---|--0--------------0h2---|
D|-2-----2-----2-------|--2------2-----2-------|
A|-0-------------------|--3--------------------|
E|---------------------|-----------------------|

e|------------3-----3--3-|-------------------|
B|-(0)---3---------------|---------0--(1)/3--|
G|--0---------------2--0-|-0-------0--(2)/4--|
D|---------0-----0-------|-----2-------------|
A|-----------------------|-------2-----------|
E|--3--------------------|-0-----------------|
                                                               x 2     
e|----------0-----------|------------0----------|
B|-0h1----------------1-|-(1)---1-------------0-|
G|-2---2----------0h2---|--0--------------0h2---|
D|-2-----2-----2--------|--2------2-----2-------|
A|-0--------------------|--3--------------------|
E|----------------------|-----------------------|

e|-------------3-------------|-0----------------------|
B|-(0)---3-------------------|-0----------0---(1)/3---|
G|--0----------------0h2p0-0-|-0----------0---(2)/4---|
D|----------0-----0----------|-2----2-----------------|
A|---------------------------|---------2--------------|
E|--3------------------------|----0-------------------|

[Verse]
e|----------0----------|------------0----------|
B|-0h1---------------1-|-(1)---1-------------0-|
G|-2---2---------0h2---|--0--------------0h2---|
D|-2-----2-----2-------|--2------2-----2-------|
A|-0-------------------|--3--------------------|
E|---------------------|-----------------------|

e|------------3-----3--3-|-------------------|
B|-(0)---3---------------|---------0--(1)/3--|
G|--0---------------2--0-|-0-------0--(2)/4--|
D|---------0-----0-------|-----2-------------|
A|-----------------------|-------2-----------|
E|--3--------------------|-0-----------------|
                                                                                     
e|----------0-----------|------------0----------|
B|-0h1----------------1-|-(1)---1-------------0-|
G|-2---2----------0h2---|--0--------------0h2---|
D|-2-----2-----2--------|--2------2-----2-------|
A|-0--------------------|--3--------------------|
E|----------------------|-----------------------|

e|-------------3-------------|-0----------------------|
B|-(0)---3-------------------|-0----------0---(1)/3---|
G|--0----------------0h2p0-0-|-0----------0---(2)/4---|
D|----------0-----0----------|-2----2-----------------|
A|---------------------------|---------2--------------|
E|--3------------------------|----0-------------------|

e|----------0----------|------------0----------|
B|-0h1---------------1-|-(1)---1-------------0-|
G|-2---2---------0h2---|--0--------------0h2---|
D|-2-----2-----2-------|--2------2-----2-------|
A|-0-------------------|--3--------------------|
E|---------------------|-----------------------|

e|------------3-----3--3-|-------------------|
B|-(0)---3---------------|---------0--(1)/3--|
G|--0---------------2--0-|-0-------0--(2)/4--|
D|---------0-----0-------|-----2-------------|
A|-----------------------|-------2-----------|
E|--3--------------------|-0-----------------|
                                                                                        
e|----------0-----------|------------0----------|
B|-0h1----------------1-|-(1)---1-------------0-|
G|-2---2----------0h2---|--0--------------0h2---|
D|-2-----2-----2--------|--2------2-----2-------|
A|-0--------------------|--3--------------------|
E|----------------------|-----------------------|

e|-------------3-------------|
B|-(0)---3-------------------|
G|--0----------------0h2p0-0-|
D|----------0-----0----------|
A|---------------------------|
E|--3------------------------|

P.M.--------------------|      
e|------------------------|
B|-5--5--5--5--5--5--5--5-|
G|-5--5--5--5--5--5--5--5-|
D|-2--2--2--2--2--2--2--2-|
A|------------------------|
E|-0--0--0--0--0--0--0--0-|
   w/distortion          

[Chorus]
P.M.--------------------|               
e|--------------------------|
B|-0-------2--2-------------|
G|-2-------2--2-------------|
D|-2-------2--2-------------|
A|-0-------0--0-----------5-|
E|---------------0--0--3----|

               P.M.-------|
e|--------------------------|
B|-5-------5--5-------------|
G|-5-------5--5-------------|
D|-5-------5--5-------------|
A|-3-------3--3-----------5-|
E|---------------0--0--3----|
                                 P.M.--------|
e|---------------------------------------------|
B|-2-------2--2-----7---9-----9--9-------------|
G|-2-------2--2-----7---9-----9--9-------------|
D|-2-------2--2-----7---9-----9--9--------5--5-|
A|-0-------0--0-----5---7-----7--7--------3--2-|
E|----------------------------------0--0-------|

               P.M.------|                P.M.-------|
e|--------------------------|--------------------------|
B|-0-------2--2-------------|-5-------5--5-------------|
G|-2-------2--2-------------|-5-------5--5-------------|
D|-2-------2--2-------------|-5-------5--5-------------|
A|-0-------0--0-----------5-|-3-------3--3-----------5-|
E|---------------0--0--3----|---------------0--0--3----|

               P.M.--|
e|---------------------|------------|
B|-2-------2--2--------|------------|
G|-2-------2--2--------|------------|
D|-2-------2--2--------|-2----------|
A|-0-------0--0--5--5--|-2----------|
E|---------------3--2--|-0----------|


P.M.--------------------|               P.M.-------|
e|------------------------|--------------------------|
B|-5--5--5--5--5--5--5--5-|-0-------2--2-------------|
G|-5--5--5--5--5--5--5--5-|-2-------2--2-------------|
D|-2--2--2--2--2--2--2--2-|-2-------2--2-------------|
A|------------------------|-0-------0--0-----------5-|
E|-0--0--0--0--0--0--0--0-|---------------0--0--3----|

               P.M.-------|
e|--------------------------|
B|-5-------5--5-------------|
G|-5-------5--5-------------|
D|-5-------5--5-------------|
A|-3-------3--3-----------5-|
E|---------------0--0--3----|
                                 P.M.--------|
e|---------------------------------------------|
B|-2-------2--2-----7---9-----9--9-------------|
G|-2-------2--2-----7---9-----9--9-------------|
D|-2-------2--2-----7---9-----9--9--------5--5-|
A|-0-------0--0-----5---7-----7--7--------3--2-|
E|----------------------------------0--0-------|

               P.M.------|                P.M.-------|
e|--------------------------|--------------------------|
B|-0-------2--2-------------|-5-------5--5-------------|
G|-2-------2--2-------------|-5-------5--5-------------|
D|-2-------2--2-------------|-5-------5--5-------------|
A|-0-------0--0-----------5-|-3-------3--3-----------5-|
E|---------------0--0--3----|---------------0--0--3----|

               P.M.--|
e|---------------------| 
B|-2-------2--2--------| 
G|-2-------2--2--------| 
D|-2-------2--2--------| 
A|-0-------0--0--5--5--| 
E|---------------3--2--| 

[Instrumental]
e|---------------------|----------------------|
B|---------------------|----------------------|
G|-7/9---------9---9---|-7/9-------9/12--11---|
D|-7/9---------9---9---|-7/9-------9/12--11---|
A|-5/7---------7---7---|-5/7-------7/10---9---|
E|---------------------|----------------------|

                        P.M.------------------------|
e|-----------------------|-------------------------------|
B|-----------------------|-------------------------------|
G|---7-------7---7-------|-----------------------------4-|
D|---7-------7---7-------|-9-9-9--7-7-7--5-5-5--4-4-4----|
A|---5-------5---5-------|-------------------------------|
E|-----------------------|-------------------------------|
        
e|---------------------|----------------------|
B|---------------------|----------------------|
G|-7/9---------9---9---|-7/9-------9/12--11---|
D|-7/9---------9---9---|-7/9-------9/12--11---|
A|-5/7---------7---7---|-5/7-------7/10---9---|
E|---------------------|----------------------|

                        P.M.------------------------|
e|-----------------------|-------------------------------|
B|-----------------------|-------------------------------|
G|---7-------7---7-------|-------------------------------|
D|---7-------7---7-------|-9-9-9--7-7-7--5-5-5--4-4-4--5-|
A|---5-------5---5-------|-------------------------------|
E|-----------------------|-------------------------------|

[Bridge]
e|---------------------|----------------------|
B|---------------------|----------------------|
G|-7/9---------9---9---|-7/9-------9/12--11---|
D|-7/9---------9---9---|-7/9-------9/12--11---|
A|-5/7---------7---7---|-5/7-------7/10---9---|
E|---------------------|----------------------|

                        P.M.------------------------|
e|-----------------------|-------------------------------|
B|-----------------------|-------------------------------|
G|---7-------7---7-------|-----------------------------4-|
D|---7-------7---7-------|-9-9-9--7-7-7--5-5-5--4-4-4----|
A|---5-------5---5-------|-------------------------------|
E|-----------------------|-------------------------------|
        
e|---------------------|----------------------|
B|---------------------|----------------------|
G|-7/9---------9---9---|-7/9-------9/12--11---|
D|-7/9---------9---9---|-7/9-------9/12--11---|
A|-5/7---------7---7---|-5/7-------7/10---9---|
E|---------------------|----------------------|

                        P.M.------------------------|
e|-----------------------|-------------------------------|
B|-----------------------|-------------------------------|
G|---7-------7---7-------|-------------------------------|
D|---7-------7---7-------|-9-9-9--7-7-7--5-5-5--4-4-4--5-|
A|---5-------5---5-------|-------------------------------|
E|-----------------------|-------------------------------|

[Instrumental]
e|--------------------------|----------------------------|
B|-7/8---------8---8--------|-7/8-------8---12---10------|
G|--------------------------|----------------------------|
D|-7/9---------9---9--------|-7/9-------9---12---11------|
A|--------------------------|----------------------------|
E|--------------------------|----------------------------|

                        P.M.-----------------------------|
e|---------------------|------------------------------------|
B|-7-------7-----------|-12-12-12--10-10-10--8-8-8--7-7-7---|
G|-------------7-------|------------------------------------|
D|-7-------7---7-------|-12-12-12--11-11-11--9-9-9--7-7-7-9-|
A|---------------------|------------------------------------|
E|---------------------|------------------------------------|

e|-------------------------|-----------------------------|
B|-7/8---------8---8-------|-7/8-------8---12---10-------|
G|-------------------------|-----------------------------|
D|-7/9---------9---9-------|-7/9-------9---12---11-------|
A|-------------------------|-----------------------------|
E|-------------------------|-----------------------------|

                             P.M.-----------------------|
e|--------------------------|-------------------------------|
B|--------------------------|-7-7-7--5-5-5--3-3-3--2-2-2--3-|
G|--11------11--11~~~~~~~~~~|-7-7-7--6-6-6--4-4-4--2-2-2--4-|
D|---7-------7---7~~~~~~~~~~|-------------------------------|
A|---9-------9---9----------|-------------------------------|
E|--------------------------|-------------------------------|

[Bridge]
e|---------------------|----------------------|
B|---------------------|----------------------|
G|-7/9---------9---9---|-7/9-------9/12--11---|
D|-7/9---------9---9---|-7/9-------9/12--11---|
A|-5/7---------7---7---|-5/7-------7/10---9---|
E|---------------------|----------------------|

                        P.M.------------------------|
e|-----------------------|-------------------------------|
B|-----------------------|-------------------------------|
G|---7-------7---7-------|-----------------------------4-|
D|---7-------7---7-------|-9-9-9--7-7-7--5-5-5--4-4-4----|
A|---5-------5---5-------|-------------------------------|
E|-----------------------|-------------------------------|
        
e|---------------------|----------------------|
B|---------------------|----------------------|
G|-7/9---------9---9---|-7/9-------9/12--11---|
D|-7/9---------9---9---|-7/9-------9/12--11---|
A|-5/7---------7---7---|-5/7-------7/10---9---|
E|---------------------|----------------------|

                        P.M.------------------------|
e|-----------------------|-------------------------------|
B|-----------------------|-------------------------------|
G|---7-------7---7-------|-------------------------------|
D|---7-------7---7-------|-9-9-9--7-7-7--5-5-5--4-4-4--5-|
A|---5-------5---5-------|-------------------------------|
E|-----------------------|-------------------------------|

[Insrtumental]
P.M.--------|          P.M.--------|
e|----------------------|------------------------|
B|----------------------|------------------------|
G|--------------9-----9-|--------------12-11-----|
D|--------------9-----9-|--------------12-11-----|
A|--------------7-----7-|--------------10--9-----|
E|-0--0--0--0-----------|-0--0--0--0-------------|

P.M.--------|        P.M.------------------------|
e|--------------------|---------------------------------|
B|--------------------|---------------------------------|
G|--------------7-----|------------------------------4--|
D|--------------7-----|-9-9-9--7-7-7--5-5-5--4-4-4--(5)-|
A|--------------5-----|---------------------------------|
E|-0--0--0--0---------|---------------------------------|

[Coda]
(Guitar 1)
                                               P.M.-|
e|-----------------------|--------------------------------|
B|-----------------------|--------------------------------|
G|-----------------------|--------------------------------|
D|--------/4-------2-----|-(2)----------------------------|
A|--2--------------------|--------5-------4--2------------|
E|-----------------------|------------------------5---2---|

                                            P.M.-|
e|---------------------|------------------------------|
B|---------------------|------------------------------|
G|---------------------|------------------------------|
D|--------/4-------2---|-(2)--------------------------|
A|---------------------|-------5-------4--2-----------|
E|-5-------------------|-----------------------5--2---|

                                               P.M.-|
e|------------------------|------------------------------|
B|------------------------|------------------------------|
G|------------------------|------------------------------|
D|---------/4-------2-----|-(2)--------------------------|
A|------------------------|-------5-------4--2-----------|
E|-3----------------------|-----------------------5--2---|

                                                P.M.--|
e|-------------------------|----------------------------|
B|-------------------------|----------------------------|
G|-------------------------|----------------------------|
D|----------/4-------2-----|-(2)------------------------|
A|-4-----------------------|-------5--------4--2--------|
E|-------------------------|----------------------5--2--|

(Guitar 2)
                                               P.M.-|
e|-----------------------|--------------------------------|
B|-----------------------|--------------------------------|
G|-----------------------|--------------------------------|
D|--------/4---------5---|---(5)--4-------2---------------|
A|----5------------------|---------------------5--4-------|
E|-----------------------|------------------------------5-|

                                            P.M.-|
e|---------------------|------------------------------|
B|---------------------|------------------------------|
G|---------------------|------------------------------|
D|--------/4---------5-|---(5)-4-------2--------------|
A|-4-------------------|--------------------5--4------|
E|---------------------|----------------------------5-|

                                               P.M.-|
e|------------------------|------------------------------|
B|------------------------|------------------------------|
G|------------------------|------------------------------|
D|---------/4---------5---|---(5)-4-------2--------------|
A|-2----------------------|--------------------5--4------|
E|------------------------|----------------------------5-|

                                                P.M.--|
e|-------------------------|----------------------------|
B|-------------------------|----------------------------|
G|-------------------------|----------------------------|
D|----------/4---------5---|---(5)-7--------5--4--2--4--|
A|-4-----------------------|----------------------------|
E|-------------------------|----------------------------|

[Guitar Solo]          
e|------------------|--------------------------|
B|------------------|--------------------------|
G|----------------7-|---9b------9b-----9b------|
D|--------/9---9----|--------------------------|
A|------------------|--------------------------|
E|------------------|--------------------------|
              
e|--------------------------------|
B|-----------------------------7--|
G|-(9)--9b----(9)p7--9---9---9----|
D|--------------------------------|
A|--------------------------------|
E|--------------------------------|

e|----------------------------------|
B|-7h8---7h8p7------7h8-------7-----|
G|---------------7----------------7-|
D|----------------------------------|
A|----------------------------------|
E|----------------------------------|

e|-----------------------------------|----------------------|
B|-7h8---7-----10---10---8---10/12---|-10---8--8h10---8---7-|
G|----------7------------------------|----------------------|
D|-----------------------------------|----------------------|
A|-----------------------------------|----------------------|
E|-----------------------------------|----------------------|

e|-----------------------|----------------------------------|
B|---8---10-----8--------|----------------------------------|
G|-----------9-----9---7-|----------------------------7---9-|
D|-----------------------|-----7-------9---9-------9--------|
A|-----------------------|----------------------------------|
E|-----------------------|----------------------------------|
                      
e|----------------------------------|
B|----------------------------------|
G|-9b----(9)p7--9---7---7-----7---9-|
D|-------------------------9--------|
A|----------------------------------|
E|----------------------------------|

e|-------7-----------7-----------7-------------|
B|---------10p7--------10p7--------10p7------7-|
G|-9b-----------9b----------9b----------9b-----|
D|---------------------------------------------|
A|---------------------------------------------|
E|---------------------------------------------|

e|----------------------7-----------7-----------7-|
B|-10p7-----7-10p7--------10p7--------10p7--------|
G|------9b---------9b----------9b----------9b-----|
D|------------------------------------------------|
A|------------------------------------------------|
E|------------------------------------------------|

e|-10p7----7-10p7-10p7----7-10p7-10p7----7-|
B|------10-------------10-------------10---|
G|-----------------------------------------|
D|-----------------------------------------|
A|-----------------------------------------|
E|-----------------------------------------|

e|-10p7----7-10p7-10p7----7-10p7-10p7----7-|
B|------10-------------10-------------10---|
G|-----------------------------------------|
D|-----------------------------------------|
A|-----------------------------------------|
E|-----------------------------------------|

e|-10b-----10b---10-8-7-8-7----|-7-------------------------|
B|--------------------------10-|---10-8-10-8-7-8-7---7-----|
G|-----------------------------|-------------------9---9-7-|
D|-----------------------------|---------------------------|
A|-----------------------------|---------------------------|
E|-----------------------------|---------------------------|

e|----------------------|------7------------|
B|--------------8p7---7-|-8-10---10-8-7-----|
G|------------------9---|---------------9-7-|
D|-7-----9---9----------|-------------------|
A|----------------------|-------------------|
E|----------------------|-------------------|

e|-------------------|------7--8--7~~~~~~7--8-|
B|-----------8-7---7-|-8-10-------------------|
G|---------------9---|------------------------|
D|-7---9--9----------|------------------------|
A|-------------------|------------------------|
E|-------------------|------------------------|

e|-10-8-7-8-7----7-------------|-------------------------|
B|------------10---10-8-10-8-7-|-8-7---7-----------------|
G|-----------------------------|-----9---9-7-9-7-6-7-6---|
D|-----------------------------|-----------------------9-|
A|-----------------------------|-------------------------|
E|-----------------------------|-------------------------|

e|------------------7--------|--------------7--------------|
B|-----------7-8-10---10-8-7-|-8-7---7-8-10---10-8-7-8-7---|
G|-----6-7-9-----------------|-----9---------------------9-|
D|-7-9-----------------------|-----------------------------|
A|---------------------------|-----------------------------|
E|---------------------------|-----------------------------|
                              
e|--------------------------|--------------------------------|
B|--------------------------|--------------------------------|
G|-9b----9b----9b----9b-----|-9b-9-9-9-9-9-9-9-9-9-9-9-9-9-9-|
D|--------------------------|--------------------------------|
A|--------------------------|--------------------------------|
E|--------------------------|--------------------------------|

e|--------------10-10-10-------10-10-10-----10-10-10-|
B|---------------7--7--7-------10-10-10-----10-10-10-|
G|-9p7---7-------7--7--7--------7--7--7------7--7--7-|
D|-----9----x-x----------x-x-x----------x-x----------|
A|----------x-x----------x-x-x----------x-x----------|
E|---------------------------------------------------|

e|----------------------------------------|
B|-10------10------10----------10p7---7-8-|
G|----------------------------------9-----|
D|----------------------------------------|
A|----------------------------------------|
E|----------------------------------------|

e|------------------------|-------------------------|
B|-7h8p7------------------|-------------------------|
G|-------9-7---7--------7-|-9-7---7-----------------|
D|-----------9--------9---|-----9---9-7-9-7---7-----|
A|------------------------|-----------------9---9-7-|
E|------------------------|-------------------------|

e|-------------------------12-|
B|----------------------------|
G|----------------------------|
D|----------------------------|
A|-9-7-5-7-5---5-5-5-5-7/-----|
E|-----------7----------------|

e|-15p12--12-15p12-14p12--12-15p12-14p12--12-|
B|------12--------------12--------------12---|
G|-------------------------------------------|
D|-------------------------------------------|
A|-------------------------------------------|
E|-------------------------------------------|

e|-15p12--12-15p12-14p12--12-15p12-14p12--12-|
B|------12--------------12--------------12---|
G|-------------------------------------------|
D|-------------------------------------------|
A|-------------------------------------------|
E|-------------------------------------------|
     
e|-17-14--14-17p14--14-17p14--14-17p14--14-|
B|------15--------15--------15--------15---|
G|-----------------------------------------|
D|-----------------------------------------|  x2
A|-----------------------------------------|
E|-----------------------------------------|
 
e|-19p15--15-19p15-17p15--15-19p15-17p15--15-| 
B|------17--------------17--------------17---|
G|-------------------------------------------|
D|-------------------------------------------|
A|-------------------------------------------| 
E|-------------------------------------------|
                                                              
e|-19p15--15-19p15-17p15--15-19p15-17p15--15-|      
B|------17--------------17--------------17---|      
G|-------------------------------------------|      
D|-------------------------------------------|     
A|-------------------------------------------|              
E|-------------------------------------------|    
                                                                     
e|-21p17--17-21p17--17-21p17--17-21p17--17-|       
B|------19--------19--------19--------19---|     
G|-----------------------------------------|                
D|-----------------------------------------| x2
A|-----------------------------------------| 
E|-----------------------------------------|

e|-22b---22b---22b---22b---|-22b---22b---22b---22b------|
B|-------------------------|----------------------------|
G|-------------------------|----------------------------|
D|-------------------------|----------------------------|
A|-------------------------|----------------------------|
E|-------------------------|----------------------------|

e|-22b(22)-19-22-20-19-20-19-17-19-17-15-17-15-14-|
B|------------------------------------------------|
G|------------------------------------------------|
D|------------------------------------------------|
A|------------------------------------------------|
E|------------------------------------------------|

e|-15-14-12-14-12-10-12-10-9-10-9-7-|
B|----------------------------------|
G|----------------------------------|
D|----------------------------------|
A|----------------------------------|
E|----------------------------------|

(begin fade)
e|-9-7--7---7----------------|------------------------|
B|----10--10--8-10-8-7-8-7---|-7----------------------|
G|-------------------------9-|---9-7-9-7---7--7--7--7-|
D|---------------------------|-----------9------------|
A|---------------------------|------------------------|
E|---------------------------|------------------------|

e|---------------------------|-----------------------------|
B|---------------------------|-----------------------7---7-|
G|-9b-----9b-----------------|-(9)------(9)-9b-------------|
D|---------------------------|-----------------------------|
A|---------------------------|-----------------------------|
E|---------------------------|-----------------------------|

e|--------7-------------|
B|-10b------10b--(10)p7-|
G|----------------------|
D|----------------------| x2
A|----------------------|
E|----------------------|

e|--------------------------------------------------|
B|-10b--(10)p7---10b-(10)p7---10b---10---10b---10---|
G|--------------------------------------------------|
D|--------------------------------------------------|
A|--------------------------------------------------|
E|--------------------------------------------------|
                  
e|-10p7--------------------------------|
B|------10-7----7-10p7-----------------|
G|-----------10--------9-7---7-9-7-----|
D|-------------------------9-------9-7-|
A|-------------------------------------|
E|-------------------------------------|

e|------------------------------------|
B|------------------------------------|
G|------------------------------------|
D|-7-7-9p7------------------------7-9-|
A|---------9-8-7-5-7-5---5--7/9-------|
E|---------------------7--------------|
              
e|------------------------------------12-15-|
B|-------------11-12-13p12----12-x-15-------|
G|-7-9-11/14---------------14---------------|
D|------------------------------------------|
A|------------------------------------------|
E|------------------------------------------|


e|-(15)12----12-15p12-15p12----12-15p12-15p12----12--|
B|---------15----------------15----------------15----|
G|---------------------------------------------------|
D|---------------------------------------------------|
A|---------------------------------------------------|
E|---------------------------------------------------|

e|-----------------------------------------------------|
B|-15b----------15b----------15b----------15b----------|
G|-14b----------14b----------14b----------14b----------|
D|-----------------------------------------------------|
A|-----------------------------------------------------|
E|-----------------------------------------------------|

***********************************

| /   Slide up
| \   Slide down
| h   Hammer-on
| p   Pull-off
| ~   Vibrato
| x   Dead note
| b   Bend
|(n)  Ghost note

***********************************